{
	"schemaVersion": "2",
	"name": "addPet",
	"start": "http.setresponse.1",
	"nodes": {
		"http.setresponse.1": {
			"type": "nodehandler://axway-flow/http",
			"method": "setresponse",
			"name": "Set HTTP Response",
			"parameters": [
				{
					"name": "status",
					"value": "200",
					"type": "number"
				},
				{
					"name": "body",
					"value": "{\n    \"pair\": \"voluptate\",\n    \"publicKey\": \"esse\"\n}",
					"type": "object"
				}
			],
			"outputs": {
				"next": {
					"context": "$.response"
				}
			}
		}
	}
}